<svg xmlns="http://www.w3.org/2000/svg" viewBox="0 0 31.948 22.989">
 
	<path  d="M8707.226,7472.961c-.86.619-3.268,1.442-13.368,1.442-10.833,0-12.429-.944-12.942-1.253-2.676-1.607-2.992-8.106-3.025-10.058.026-1.478.283-8.771,3.025-10.417.515-.311,2.121-1.261,12.942-1.261,10.095,0,12.5.828,13.368,1.45,2.4,1.731,2.607,8.254,2.612,10.2C8709.831,7465.49,8709.563,7471.279,8707.226,7472.961Zm-16.047-14.579v9.189l7.425-4.6Z" transform="translate(-8677.89 -7451.414)" />
</svg>
